{
	"created": "2015-01-31T19:10:14.069Z",
	"view": "default",
	"regions": {
		"title": "About Us",
		"head": "",
		"primary": "<h1>About Us</h1>",
		"secondary": "<p>Lorem ipsum dolor sit amet.</p>"
	}
}